info face="SansSerif.bold" size=16 bold=1 italic=0 charset="" unicode=0 stretchH=100 smooth=1 aa=1 padding=0,0,0,0 spacing=0,0
common lineHeight=21 base=17 scaleW=128 scaleH=128 pages=1 packed=0
page id=0 file="sansserif.png"
chars count=94
char id=32   x=0     y=0     width=0     height=0     xoffset=0     yoffset=17    xadvance=4     page=0  chnl=0 
char id=64   x=0     y=0     width=17     height=18     xoffset=1     yoffset=4    xadvance=16     page=0  chnl=0 
char id=124   x=17     y=0     width=4     height=17     xoffset=1     yoffset=4    xadvance=4     page=0  chnl=0 
char id=125   x=21     y=0     width=8     height=17     xoffset=0     yoffset=4    xadvance=6     page=0  chnl=0 
char id=123   x=29     y=0     width=8     height=17     xoffset=0     yoffset=4    xadvance=6     page=0  chnl=0 
char id=93   x=37     y=0     width=6     height=17     xoffset=0     yoffset=4    xadvance=5     page=0  chnl=0 
char id=91   x=43     y=0     width=6     height=17     xoffset=1     yoffset=4    xadvance=5     page=0  chnl=0 
char id=41   x=49     y=0     width=6     height=17     xoffset=0     yoffset=4    xadvance=5     page=0  chnl=0 
char id=40   x=55     y=0     width=5     height=17     xoffset=1     yoffset=4    xadvance=5     page=0  chnl=0 
char id=106   x=60     y=0     width=6     height=17     xoffset=-1     yoffset=4    xadvance=4     page=0  chnl=0 
char id=36   x=66     y=0     width=9     height=16     xoffset=1     yoffset=3    xadvance=9     page=0  chnl=0 
char id=38   x=75     y=0     width=12     height=14     xoffset=1     yoffset=4    xadvance=12     page=0  chnl=0 
char id=35   x=87     y=0     width=9     height=14     xoffset=1     yoffset=4    xadvance=9     page=0  chnl=0 
char id=37   x=96     y=0     width=17     height=14     xoffset=0     yoffset=4    xadvance=16     page=0  chnl=0 
char id=92   x=113     y=0     width=5     height=14     xoffset=0     yoffset=4    xadvance=4     page=0  chnl=0 
char id=47   x=118     y=0     width=5     height=14     xoffset=0     yoffset=4    xadvance=4     page=0  chnl=0 
char id=59   x=123     y=0     width=4     height=14     xoffset=2     yoffset=7    xadvance=6     page=0  chnl=0 
char id=33   x=0     y=18     width=4     height=14     xoffset=1     yoffset=4    xadvance=4     page=0  chnl=0 
char id=57   x=4     y=18     width=10     height=14     xoffset=0     yoffset=4    xadvance=9     page=0  chnl=0 
char id=55   x=14     y=18     width=10     height=14     xoffset=0     yoffset=4    xadvance=9     page=0  chnl=0 
char id=54   x=24     y=18     width=10     height=14     xoffset=0     yoffset=4    xadvance=9     page=0  chnl=0 
char id=53   x=34     y=18     width=10     height=14     xoffset=0     yoffset=4    xadvance=9     page=0  chnl=0 
char id=52   x=44     y=18     width=10     height=14     xoffset=0     yoffset=4    xadvance=9     page=0  chnl=0 
char id=51   x=54     y=18     width=9     height=14     xoffset=0     yoffset=4    xadvance=9     page=0  chnl=0 
char id=50   x=63     y=18     width=10     height=14     xoffset=0     yoffset=4    xadvance=9     page=0  chnl=0 
char id=49   x=73     y=18     width=7     height=14     xoffset=1     yoffset=4    xadvance=9     page=0  chnl=0 
char id=121   x=80     y=18     width=12     height=14     xoffset=-1     yoffset=7    xadvance=9     page=0  chnl=0 
char id=113   x=92     y=18     width=10     height=14     xoffset=1     yoffset=7    xadvance=10     page=0  chnl=0 
char id=112   x=102     y=18     width=10     height=14     xoffset=1     yoffset=7    xadvance=10     page=0  chnl=0 
char id=108   x=112     y=18     width=4     height=14     xoffset=1     yoffset=4    xadvance=4     page=0  chnl=0 
char id=107   x=116     y=18     width=9     height=14     xoffset=1     yoffset=4    xadvance=9     page=0  chnl=0 
char id=105   x=0     y=32     width=4     height=14     xoffset=1     yoffset=4    xadvance=4     page=0  chnl=0 
char id=104   x=4     y=32     width=10     height=14     xoffset=1     yoffset=4    xadvance=10     page=0  chnl=0 
char id=103   x=14     y=32     width=11     height=14     xoffset=0     yoffset=7    xadvance=10     page=0  chnl=0 
char id=102   x=25     y=32     width=7     height=14     xoffset=0     yoffset=4    xadvance=5     page=0  chnl=0 
char id=100   x=32     y=32     width=10     height=14     xoffset=1     yoffset=4    xadvance=10     page=0  chnl=0 
char id=98   x=42     y=32     width=10     height=14     xoffset=1     yoffset=4    xadvance=10     page=0  chnl=0 
char id=90   x=52     y=32     width=11     height=14     xoffset=0     yoffset=4    xadvance=9     page=0  chnl=0 
char id=89   x=63     y=32     width=13     height=14     xoffset=-1     yoffset=4    xadvance=10     page=0  chnl=0 
char id=88   x=76     y=32     width=12     height=14     xoffset=0     yoffset=4    xadvance=11     page=0  chnl=0 
char id=87   x=88     y=32     width=16     height=14     xoffset=0     yoffset=4    xadvance=15     page=0  chnl=0 
char id=86   x=104     y=32     width=14     height=14     xoffset=-1     yoffset=4    xadvance=11     page=0  chnl=0 
char id=85   x=0     y=46     width=12     height=14     xoffset=1     yoffset=4    xadvance=12     page=0  chnl=0 
char id=84   x=12     y=46     width=12     height=14     xoffset=0     yoffset=4    xadvance=10     page=0  chnl=0 
char id=83   x=24     y=46     width=11     height=14     xoffset=1     yoffset=4    xadvance=11     page=0  chnl=0 
char id=82   x=35     y=46     width=12     height=14     xoffset=1     yoffset=4    xadvance=12     page=0  chnl=0 
char id=81   x=47     y=46     width=11     height=14     xoffset=1     yoffset=5    xadvance=12     page=0  chnl=0 
char id=80   x=58     y=46     width=11     height=14     xoffset=1     yoffset=4    xadvance=11     page=0  chnl=0 
char id=78   x=69     y=46     width=12     height=14     xoffset=1     yoffset=4    xadvance=12     page=0  chnl=0 
char id=77   x=81     y=46     width=13     height=14     xoffset=1     yoffset=4    xadvance=13     page=0  chnl=0 
char id=76   x=94     y=46     width=10     height=14     xoffset=1     yoffset=4    xadvance=10     page=0  chnl=0 
char id=75   x=104     y=46     width=12     height=14     xoffset=1     yoffset=4    xadvance=12     page=0  chnl=0 
char id=74   x=116     y=46     width=10     height=14     xoffset=0     yoffset=4    xadvance=9     page=0  chnl=0 
char id=73   x=0     y=60     width=4     height=14     xoffset=1     yoffset=4    xadvance=4     page=0  chnl=0 
char id=72   x=4     y=60     width=12     height=14     xoffset=1     yoffset=4    xadvance=12     page=0  chnl=0 
char id=71   x=16     y=60     width=12     height=14     xoffset=1     yoffset=4    xadvance=12     page=0  chnl=0 
char id=70   x=28     y=60     width=10     height=14     xoffset=1     yoffset=4    xadvance=10     page=0  chnl=0 
char id=69   x=38     y=60     width=11     height=14     xoffset=1     yoffset=4    xadvance=11     page=0  chnl=0 
char id=68   x=49     y=60     width=12     height=14     xoffset=1     yoffset=4    xadvance=12     page=0  chnl=0 
char id=67   x=61     y=60     width=11     height=14     xoffset=1     yoffset=4    xadvance=12     page=0  chnl=0 
char id=66   x=72     y=60     width=11     height=14     xoffset=1     yoffset=4    xadvance=12     page=0  chnl=0 
char id=65   x=83     y=60     width=12     height=14     xoffset=0     yoffset=4    xadvance=11     page=0  chnl=0 
char id=63   x=95     y=60     width=10     height=13     xoffset=1     yoffset=5    xadvance=10     page=0  chnl=0 
char id=48   x=105     y=60     width=10     height=13     xoffset=0     yoffset=5    xadvance=9     page=0  chnl=0 
char id=56   x=115     y=60     width=9     height=13     xoffset=0     yoffset=5    xadvance=9     page=0  chnl=0 
char id=116   x=0     y=74     width=7     height=13     xoffset=0     yoffset=5    xadvance=5     page=0  chnl=0 
char id=79   x=7     y=74     width=12     height=13     xoffset=1     yoffset=5    xadvance=12     page=0  chnl=0 
char id=58   x=19     y=74     width=4     height=11     xoffset=2     yoffset=7    xadvance=6     page=0  chnl=0 
char id=122   x=23     y=74     width=9     height=11     xoffset=1     yoffset=7    xadvance=9     page=0  chnl=0 
char id=120   x=32     y=74     width=10     height=11     xoffset=0     yoffset=7    xadvance=9     page=0  chnl=0 
char id=119   x=42     y=74     width=14     height=11     xoffset=0     yoffset=7    xadvance=13     page=0  chnl=0 
char id=118   x=56     y=74     width=10     height=11     xoffset=0     yoffset=7    xadvance=9     page=0  chnl=0 
char id=117   x=66     y=74     width=10     height=11     xoffset=1     yoffset=7    xadvance=10     page=0  chnl=0 
char id=115   x=76     y=74     width=10     height=11     xoffset=0     yoffset=7    xadvance=9     page=0  chnl=0 
char id=114   x=86     y=74     width=6     height=11     xoffset=1     yoffset=7    xadvance=6     page=0  chnl=0 
char id=110   x=92     y=74     width=10     height=11     xoffset=1     yoffset=7    xadvance=10     page=0  chnl=0 
char id=109   x=102     y=74     width=14     height=11     xoffset=1     yoffset=7    xadvance=14     page=0  chnl=0 
char id=101   x=116     y=74     width=9     height=11     xoffset=1     yoffset=7    xadvance=9     page=0  chnl=0 
char id=99   x=0     y=87     width=8     height=11     xoffset=1     yoffset=7    xadvance=9     page=0  chnl=0 
char id=97   x=8     y=87     width=9     height=11     xoffset=1     yoffset=7    xadvance=9     page=0  chnl=0 
char id=43   x=17     y=87     width=10     height=10     xoffset=0     yoffset=6    xadvance=9     page=0  chnl=0 
char id=62   x=27     y=87     width=10     height=10     xoffset=0     yoffset=7    xadvance=9     page=0  chnl=0 
char id=60   x=37     y=87     width=10     height=10     xoffset=0     yoffset=7    xadvance=9     page=0  chnl=0 
char id=111   x=47     y=87     width=10     height=10     xoffset=1     yoffset=8    xadvance=10     page=0  chnl=0 
char id=94   x=57     y=87     width=9     height=8     xoffset=0     yoffset=4    xadvance=9     page=0  chnl=0 
char id=61   x=66     y=87     width=10     height=7     xoffset=0     yoffset=7    xadvance=9     page=0  chnl=0 
char id=44   x=76     y=87     width=4     height=7     xoffset=1     yoffset=14    xadvance=4     page=0  chnl=0 
char id=42   x=80     y=87     width=6     height=6     xoffset=0     yoffset=4    xadvance=6     page=0  chnl=0 
char id=39   x=86     y=87     width=4     height=6     xoffset=1     yoffset=4    xadvance=4     page=0  chnl=0 
char id=34   x=90     y=87     width=8     height=6     xoffset=1     yoffset=4    xadvance=8     page=0  chnl=0 
char id=126   x=98     y=87     width=10     height=5     xoffset=0     yoffset=9    xadvance=9     page=0  chnl=0 
char id=95   x=108     y=87     width=11     height=4     xoffset=0     yoffset=17    xadvance=9     page=0  chnl=0 
char id=45   x=119     y=87     width=6     height=4     xoffset=1     yoffset=11    xadvance=5     page=0  chnl=0 
char id=46   x=0     y=98     width=4     height=4     xoffset=1     yoffset=14    xadvance=4     page=0  chnl=0 
char id=96   x=4     y=98     width=4     height=4     xoffset=0     yoffset=4    xadvance=5     page=0  chnl=0 
