{
	name: "The great divide",
	width:20, height:10,
	horizon:1,
	needed:3,
	perfect:8,
	tileData:"
	zKkzzzzzsszzzzzzzzrz
	MMMMMMMMMSMMMMMMMMMM
	MMMMMMGMMSMMMMMMMMMM
	MMMMMMMMMSMMMMMMMMMM
	MMMGMMMMMSMMMMMMMMMM
	MMMMMMMMMSMMMMMMMMMM
	MMMMMGMMMSMMMMMMMMMM
	MMMMMMMMGSMMMMMMMMMM
	MMMMMMMGGSMMMMMMMMMM
	MMMMMMMGGSMMMMMMMMMM
	SSSSSSSSSSSSSSSSSSSS
	"
}